Performa Cabang
…
## The following objects are masked from 'package:stats':
## 
##     filter, lag

## The following objects are masked from 'package:base':
## 
##     intersect, setdiff, setequal, union

df_loan_mei <- df_loan %>% 
  filter(tanggal_cair >= '2020-05-01', tanggal_cair <= '2020-05-31') %>% 
  group_by(cabang) %>% 
  summarise(total_amount = sum(amount))
df_loan_mei

## # A tibble: 22 x 2
##    cabang total_amount
##    <chr>         <int>
##  1 AA         75710000
##  2 AB         81440000
##  3 AC         83990000
##  4 AD         76080000
##  5 AE         54200000
##  6 AF         68040000
##  7 AG         74080000
##  8 AH         73840000
##  9 AI         46640000
## 10 AJ         43580000
## # ... with 12 more rows
…
Lalu simpan sebagai df_cabang_umur.

Terakhir tampilkan data df_cabang_umur

Jangan lupa gunakan pipe %>% untuk menyambungkan fungsi.

library(dplyr)
df_cabang_umur <- df_loan %>%
  group_by(cabang) %>% 
  summarise(pertama_cair = min(tanggal_cair)) %>% 
  mutate(umur = as.numeric(as.Date('2020-05-15') - as.Date(pertama_cair)) %/% 30) 
df_cabang_umur

## # A tibble: 22 x 3
##    cabang pertama_cair  umur
##    <chr>  <chr>        <dbl>
##  1 AA     2020-01-06       4
##  2 AB     2020-01-06       4
##  3 AC     2020-01-06       4
##  4 AD     2020-01-06       4
##  5 AE     2020-02-03       3
##  6 AF     2020-02-03       3
##  7 AG     2020-02-03       3
##  8 AH     2020-02-03       3
##  9 AI     2020-03-02       2
## 10 AJ     2020-03-02       2
## # ... with 12 more rows

Gabungkan data umur dan performa mei

Selanjutnya untuk membandingkan data umur dan performa di bulan mei, terlebih dahulu perlu digabungkan dulu data-data yang sudah dibuat sebelumnya dengan menggunakan fungsi inner_join, lalu simpan sebagai df_loan_mei_umur.

Jangan lupa gunakan pipe %>% untuk menyambungkan fungsi.

library(dplyr)
df_loan_mei_umur <- df_cabang_umur %>%
  inner_join(df_loan_mei, by = 'cabang')
df_loan_mei_umur

## # A tibble: 22 x 4
##    cabang pertama_cair  umur total_amount
##    <chr>  <chr>        <dbl>        <int>
##  1 AA     2020-01-06       4     75710000
##  2 AB     2020-01-06       4     81440000
##  3 AC     2020-01-06       4     83990000
##  4 AD     2020-01-06       4     76080000
##  5 AE     2020-02-03       3     54200000
##  6 AF     2020-02-03       3     68040000
##  7 AG     2020-02-03       3     74080000
##  8 AH     2020-02-03       3     73840000
##  9 AI     2020-03-02       2     46640000
## 10 AJ     2020-03-02       2     43580000
## # ... with 12 more rows
…
